              total        used        free      shared  buff/cache   available
Mem:       16257416     1690908    11679812      437424     2886696    13793496
Swap:       2097148           0     2097148
